3333333333333333
3333333333333333
333333333333333
333333333333333
333333333333333
333333333333
<<<<<<< HEAD
BLYAAAAAAAр12321312312312321
=======
ssssssssssssssss
sdasda

dsadsa
d
sad
a
da
р12321312312312321
>>>>>>> dev
